north_east,north,north_west,north_west,north_west,north,centrum_middle,centrum_middle,centrum_middle,centrum_middle,west,west,north_west,centrum_middle,north,south_east,west,centrum_middle,north_east,north_east,north_east,south_east,centrum_middle,north_east,north_east,north_east,north,north,centrum_middle,centrum_middle,north_east,north_east,south_east,south_east,south_east,south_east,south_east,west,north_west,south_east,north_east,north_east,west,north_east,north_east,south_east,west,south_east,west,centrum_middle,centrum_middle,north,north,centrum_middle
Smedstua,Kjelsås,Smestad,Ullevål-Stadion,Vinderen,Nydalen,Grunerløkka & Vulkan,Oslo City,Grønland,Vika-National theatre & Akershus fortress,Frogner,Majorstuen,Marienlyst,Torshov,Storo,Østensjø,Ullern,Fagerborg & Valle,Risløkka & Vollebekk,Kalbakken,Veitvet & Linderud,Bryn & Manglerud,Old Oslo,Bjerke & Brobekk,Alna,Furuset & Ellingsrud,Grefsen,Sagene,St.hanshaugen,Pilestredet,Grorud,Stovner,Ekeberg & Nordstrand,Søndre-Nordstrand,Lambertseter,Mortensrud,Holmlia,Fornebu,Blindern & UiO,Helsfyr,Alnabru,Økern,Skøyen,Karihaugen area & interchange E6/163/159,Tangerud area & interchange 163/E6,Klemetsrud & E6-south,Lysaker,Vallehovin & Ulven,Lilleaker & CC-vest,Carl-berner,Tøyen & Kampen,Bjølsen,Sinsen,Ensjø
0,10,0,26,2,44,104,10,16,119,25,34,25,27,23,18,0,41,47,0,7,9,26,17,60,22,2,8,14,25,34,13,9,0,25,0,26,205,28,42,0,8,26,0,0,0,6,5,13,11,21,10,7,0
0,6,0,17,1,0,152,0,41,86,17,46,1,17,9,8,0,5,3,6,15,33,7,4,30,13,0,1,10,6,27,23,4,2,8,4,7,29,0,23,0,5,9,0,0,0,23,14,5,0,35,16,14,14
0,0,0,4,0,0,8,0,0,0,0,12,0,0,8,0,0,0,0,0,0,12,0,7,10,2,0,0,0,0,14,0,4,0,0,14,0,5,0,0,0,1,18,0,0,0,0,0,2,0,8,10,0,0
0,6,0,0,0,0,48,0,4,0,8,6,0,8,4,12,0,16,4,0,10,0,8,6,0,0,0,3,10,6,16,8,6,0,6,0,13,0,0,14,0,0,0,0,0,0,0,8,2,0,20,0,0,0
0,6,0,26,2,44,72,10,13,119,20,30,25,22,20,10,0,30,43,0,0,9,26,13,60,22,2,6,7,21,23,8,5,0,21,0,17,205,28,37,0,8,26,0,0,0,6,0,11,11,8,10,7,0
0,4,0,17,1,0,136,0,40,86,14,44,1,14,8,4,0,0,2,6,12,33,7,2,30,13,0,0,7,4,22,20,2,2,6,4,3,29,0,14,0,5,9,0,0,0,23,11,5,0,28,16,14,0
0,0,0,0,0,0,0,0,0,0,0,0,0,0,0,0,0,0,0,0,0,0,0,0,0,0,0,0,0,0,0,0,0,0,0,0,0,0,0,0,0,0,0,0,0,0,0,0,0,0,0,0,0,0



""" 
We divide this on 67-33%
 e,g:  there are 6 amount of type1PLUSType2 meaning:
       we multiply 0.67 with 6 and get 4.02, then we "round" this and get 4, we then add 4 to schkuko and the 
       remaining 2 to type2
 
 e,g:  there are 32 amount of Type1PLUSType2 meaning:
       er multiply 0.67 with 32, and get 21.44, round this to 21, and we add 21 to schkuko and the remaining 
       11 to type2
"""